<svg width="609" height="739" viewBox="0 0 609 739" fill="none" xmlns="http://www.w3.org/2000/svg">
<g filter="url(#filter0_d_178_2)">
<rect x="4.76624" width="600" height="731" fill="#F3F3F3"/>
</g>
<g clip-path="url(#clip0_178_2)">
<path d="M768.766 628.517H-78.2338V628.94H768.766V628.517Z" fill="#EBEBEB"/>
<path d="M62.7409 655.778H6.63562V656.201H62.7409V655.778Z" fill="#EBEBEB"/>
<path d="M222.4 660.366H207.68V660.79H222.4V660.366Z" fill="#EBEBEB"/>
<path d="M96.9428 640.048H64.4349V640.471H96.9428V640.048Z" fill="#EBEBEB"/>
<path d="M591.642 642.892H580.919V643.316H591.642V642.892Z" fill="#EBEBEB"/>
<path d="M546.056 650.055H387.362V650.478H546.056V650.055Z" fill="#EBEBEB"/>
<path d="M367.271 552.999H694.383C699.719 552.999 704.055 548.664 704.055 543.331V83.7389C704.055 78.4052 699.719 74.0706 694.383 74.0706H367.271C361.935 74.0706 357.599 78.4052 357.599 83.7389V543.348C357.599 548.681 361.935 553.016 367.271 553.016V552.999ZM694.383 74.5108C699.482 74.5108 703.632 78.6592 703.632 83.7558V543.348C703.632 548.444 699.482 552.593 694.383 552.593H367.271C362.172 552.593 358.022 548.444 358.022 543.348V83.7389C358.022 78.6423 362.172 74.4939 367.271 74.4939H694.383V74.5108Z" fill="#EBEBEB"/>
<path d="M0.859139 552.999H327.971C333.307 552.999 337.643 548.664 337.643 543.331V83.7389C337.643 78.4052 333.307 74.0706 327.971 74.0706H0.859139C-4.47696 74.0706 -8.8136 78.4052 -8.8136 83.7389V543.348C-8.8136 548.681 -4.47696 553.016 0.859139 553.016V552.999ZM327.971 74.5108C333.069 74.5108 337.22 78.6592 337.22 83.7558V543.348C337.22 548.444 333.069 552.593 327.971 552.593H0.859139C-4.2398 552.593 -8.3901 548.444 -8.3901 543.348V83.7389C-8.3901 78.6423 -4.2398 74.4939 0.859139 74.4939H327.971V74.5108Z" fill="#EBEBEB"/>
<path d="M51.8807 440.223C57.4212 439.322 61.1821 434.102 60.2807 428.564C59.3794 423.026 54.1572 419.267 48.6166 420.168C43.076 421.069 39.3152 426.289 40.2165 431.827C41.1179 437.365 46.3401 441.124 51.8807 440.223Z" fill="#E0E0E0"/>
<path d="M48.1895 623.115H52.3059L52.3059 430.206H48.1895L48.1895 623.115Z" fill="#E0E0E0"/>
<path d="M66.7896 628.517H33.7396V628.415C33.7396 625.486 36.1281 623.099 39.0588 623.099H61.4704C64.401 623.099 66.7896 625.486 66.7896 628.415V628.517Z" fill="#E0E0E0"/>
<path d="M447.211 430.189C447.211 435.794 451.751 440.349 457.375 440.349C462.999 440.349 467.539 435.811 467.539 430.189C467.539 424.568 462.999 420.03 457.375 420.03C451.751 420.03 447.211 424.568 447.211 430.189Z" fill="#E0E0E0"/>
<path d="M455.308 623.115H459.425V430.206H455.308V623.115Z" fill="#E0E0E0"/>
<path d="M473.892 628.517H440.842V628.415C440.842 625.486 443.23 623.099 446.161 623.099H468.572C471.503 623.099 473.892 625.486 473.892 628.415V628.517Z" fill="#E0E0E0"/>
<path d="M255.433 440.216C260.974 439.315 264.734 434.095 263.833 428.557C262.932 423.019 257.71 419.26 252.169 420.161C246.628 421.062 242.868 426.281 243.769 431.82C244.67 437.358 249.892 441.117 255.433 440.216Z" fill="#E0E0E0"/>
<path d="M251.74 623.115H255.857L255.857 430.206H251.74L251.74 623.115Z" fill="#E0E0E0"/>
<path d="M270.324 628.517H237.274V628.415C237.274 625.486 239.662 623.099 242.593 623.099H265.004C267.935 623.099 270.324 625.486 270.324 628.415V628.517Z" fill="#E0E0E0"/>
<path d="M355.583 496.615C411.248 496.615 458.205 471.843 458.205 456.299H456.511C456.511 469.185 412.874 494.922 355.583 494.922C298.292 494.922 254.654 469.185 254.654 456.299H252.96C252.96 471.86 299.918 496.615 355.583 496.615Z" fill="#E0E0E0"/>
<path d="M559.151 496.615C614.815 496.615 661.773 471.843 661.773 456.299H660.079C660.079 469.185 616.442 494.922 559.151 494.922C501.86 494.922 458.222 469.185 458.222 456.299H456.528C456.528 471.86 503.486 496.615 559.151 496.615Z" fill="#E0E0E0"/>
<path d="M152.032 496.615C207.697 496.615 254.654 471.843 254.654 456.299H252.96C252.96 469.185 209.323 494.922 152.032 494.922C94.7406 494.922 51.1032 469.185 51.1032 456.299H49.4092C49.4092 471.86 96.3668 496.615 152.032 496.615Z" fill="#E0E0E0"/>
<path d="M345.266 704.983C526.664 704.983 673.716 696.402 673.716 685.816C673.716 675.23 526.664 666.648 345.266 666.648C163.869 666.648 16.8167 675.23 16.8167 685.816C16.8167 696.402 163.869 704.983 345.266 704.983Z" fill="#F5F5F5"/>
<path d="M294.802 120.448H35.7893V390.009H294.802V120.448Z" fill="#407BFF"/>
<path opacity="0.8" d="M294.802 120.448H35.7893V390.009H294.802V120.448Z" fill="#285A97"/>
<path d="M274.694 373.077V137.38H55.897L55.897 373.077H274.694Z" fill="white"/>
<path opacity="0.4" d="M57.6927 373.077L57.6927 137.38H55.9141L55.9141 373.077H57.6927Z" fill="#407BFF"/>
<path d="M294.802 390.009H300.477L300.477 120.448H294.802L294.802 390.009Z" fill="#263238"/>
<path opacity="0.5" d="M241.848 176.494H108.496V288.805H241.848V176.494Z" fill="#285A97"/>
<path opacity="0.2" d="M81.3749 311.664H108.513V288.805H81.3749V311.664Z" fill="#285A97"/>
<g opacity="0.7">
<path d="M108.496 334.522H114.594V311.664H108.496V334.522Z" fill="#285A97"/>
<path d="M122.641 334.522H128.739V311.664H122.641V334.522Z" fill="#285A97"/>
<path d="M136.769 334.522H142.867V311.664H136.769V334.522Z" fill="#285A97"/>
<path d="M150.914 334.522H157.012V311.664H150.914V334.522Z" fill="#285A97"/>
<path d="M165.059 334.522H171.157V311.664H165.059V334.522Z" fill="#285A97"/>
<path d="M179.187 334.522H185.285V311.664H179.187V334.522Z" fill="#285A97"/>
<path d="M193.331 334.522H199.43V311.664H193.331V334.522Z" fill="#285A97"/>
<path d="M207.476 334.522H213.575V311.664H207.476V334.522Z" fill="#285A97"/>
<path d="M221.621 334.522H227.72V311.664H221.621V334.522Z" fill="#285A97"/>
<path d="M235.749 334.522H241.848V311.664H235.749V334.522Z" fill="#285A97"/>
</g>
<path d="M385.82 138.701H384.126V150.926H385.82V138.701Z" fill="#285A97"/>
<path d="M384.126 129.473H385.82V116.215H423.376V114.522H384.126V129.473Z" fill="#285A97"/>
<path d="M649.068 120.448H390.055V390.009H649.068V120.448Z" fill="#285A97"/>
<path opacity="0.2" d="M407.266 372.044H631.84V138.396H407.266V372.044ZM629.994 370.199H409.113V140.242H629.994V370.199Z" fill="white"/>
<path d="M609.801 352.454V158.004H429.288V352.454H609.801Z" fill="white"/>
<path opacity="0.2" d="M531.572 290.719C545.514 277.952 578.225 278.273 581.342 257.819C584.069 239.956 553.984 239.922 564.199 221.787C570.399 210.781 586.847 190.564 557.287 187.804C539.348 186.128 518.122 193.68 505.349 204.466C485.58 221.178 518.342 228.899 515.208 245.154C513.802 252.469 506.586 254.162 500.284 257.989C491.001 263.627 479.719 271.551 474.18 280.153C465.371 293.851 475.23 313.713 491.983 320.248C521.222 331.644 518.715 302.47 531.572 290.702V290.719Z" fill="#285A97"/>
<path opacity="0.2" d="M494.508 234.944C491.001 221.398 469.267 208.038 466.133 227.612C462.999 247.186 500.979 259.97 494.508 234.944Z" fill="#285A97"/>
<path d="M430.779 352.454V158.004H429.306V352.454H430.779Z" fill="#E0E0E0"/>
<path d="M196.465 281.22C195.466 283.404 194.72 285.283 193.958 287.332C193.213 289.33 192.484 291.345 191.824 293.36C190.502 297.407 189.35 301.505 188.317 305.619C187.301 309.751 186.403 313.899 185.742 318.115C185.353 320.215 185.115 322.331 184.81 324.431L184.472 327.614L184.302 329.206C184.251 329.748 184.201 330.476 184.167 331.102C183.997 336.165 184.794 340.466 185.624 344.733C186.504 348.966 187.623 353.063 188.876 357.076C190.147 361.089 191.536 365.034 192.993 368.929C194.517 372.823 196.059 376.65 197.854 380.477L204.613 378.055C203.682 374.161 202.699 370.199 201.852 366.253C200.937 362.325 200.09 358.38 199.379 354.452C198.634 350.523 197.99 346.612 197.532 342.785C197.075 338.993 196.855 335.115 197.16 331.983L197.329 330.831L197.583 329.375L198.091 326.48C198.515 324.549 198.837 322.619 199.294 320.706C200.124 316.862 201.141 313.052 202.157 309.26C203.19 305.467 204.427 301.708 205.698 298C206.307 296.137 206.968 294.291 207.646 292.463C208.323 290.685 209.069 288.755 209.712 287.18L196.482 281.237L196.465 281.22Z" fill="#FFC3BD"/>
<path d="M203.241 376.819L210.644 385.827L200.056 388.994C200.056 388.994 194.89 382.492 196.567 376.819H203.241Z" fill="#FFC3BD"/>
<path d="M213.829 394.192L205.223 398.002L200.04 388.994L210.644 385.844L213.829 394.192Z" fill="#FF8B7B"/>
<path d="M228.126 672.236C226.822 672.236 225.382 671.965 224.365 671.728C224.23 671.694 224.128 671.593 224.111 671.457C224.077 671.322 224.145 671.186 224.247 671.119C224.721 670.797 229.007 668.02 230.667 668.765C230.921 668.884 231.26 669.138 231.345 669.713C231.463 670.458 231.277 671.068 230.819 671.491C230.227 672.05 229.21 672.236 228.126 672.236ZM225.314 671.254C227.787 671.745 229.651 671.661 230.362 671C230.667 670.729 230.769 670.323 230.684 669.798C230.633 669.51 230.515 669.425 230.396 669.375C229.515 668.968 227.059 670.187 225.314 671.237V671.254Z" fill="#285A97"/>
<path d="M224.45 671.745C224.45 671.745 224.331 671.745 224.281 671.694C224.179 671.627 224.111 671.525 224.111 671.407C224.111 671.237 224.077 667.157 225.602 665.785C226.009 665.43 226.483 665.277 227.025 665.328C227.872 665.429 228.109 665.954 228.177 666.259C228.516 667.851 225.975 670.916 224.636 671.677C224.586 671.711 224.535 671.728 224.467 671.728L224.45 671.745ZM226.788 666.005C226.517 666.005 226.263 666.107 226.042 666.293C225.128 667.106 224.857 669.392 224.789 670.763C226.127 669.68 227.703 667.394 227.499 666.412C227.465 666.259 227.364 666.056 226.94 666.005C226.889 666.005 226.839 666.005 226.788 666.005Z" fill="#285A97"/>
<path d="M227.635 231.032C229.244 239.465 232.852 257.887 226.923 263.39C226.923 263.39 229.176 271.958 244.829 272.279C262.04 272.618 253.113 263.915 253.113 263.915C243.728 261.494 244.016 254.534 245.693 248.032L227.652 231.049L227.635 231.032Z" fill="#FFC3BD"/>
<path d="M256.433 211.764C256.331 211.764 256.229 211.73 256.128 211.679C255.789 211.51 255.67 211.103 255.84 210.765C257.534 207.48 260.617 207.158 260.736 207.141C261.108 207.107 261.43 207.378 261.481 207.751C261.515 208.123 261.261 208.445 260.888 208.479C260.786 208.479 258.381 208.767 257.043 211.391C256.924 211.628 256.687 211.747 256.433 211.747V211.764Z" fill="#263238"/>
<path d="M261.532 219.214C261.532 219.214 264.039 223.904 266.444 226.054C265.106 227.612 262.48 227.24 262.48 227.24L261.532 219.214Z" fill="#ED847E"/>
<path d="M260.278 217.368C260.414 218.503 261.125 219.366 261.871 219.282C262.616 219.197 263.107 218.215 262.972 217.08C262.836 215.946 262.125 215.082 261.379 215.167C260.634 215.252 260.143 216.234 260.278 217.368Z" fill="#263238"/>
<path d="M261.057 215.269L263.7 214.202C263.7 214.202 262.548 216.488 261.057 215.269Z" fill="#263238"/>
<path d="M226.483 657.556L239.628 663.736L253.993 635.07L240.831 628.89L226.483 657.556Z" fill="#FFC3BD"/>
<path d="M207.934 671.406H222.129L220.554 638.558H206.375L207.934 671.406Z" fill="#FFC3BD"/>
<path d="M223.23 669.764H207.29C206.714 669.764 206.24 670.17 206.172 670.729L204.529 683.344C204.359 684.648 205.494 685.884 206.832 685.867C212.389 685.765 215.065 685.443 222.078 685.443C226.398 685.443 232.7 685.884 238.663 685.884C244.626 685.884 244.846 679.991 242.373 679.466C231.226 677.079 229.414 673.777 225.619 670.628C224.941 670.069 224.077 669.764 223.23 669.764Z" fill="#263238"/>
<path opacity="0.2" d="M253.994 635.07L246.303 650.444L233.428 643.672L240.831 628.89L253.994 635.07Z" fill="black"/>
<path opacity="0.2" d="M206.375 638.575H220.571L221.367 655.49H207.171L206.375 638.575Z" fill="black"/>
<path d="M202.394 266.133C196.482 267.301 190.062 288.365 190.062 288.365L206.646 306.381C206.646 306.381 220.605 286.757 217.827 279.391C214.93 271.721 209.373 264.745 202.394 266.133Z" fill="#285A97"/>
<path opacity="0.4" d="M211.677 279.781C214.676 277.122 216.692 277.969 218.047 280.153C219.368 286.469 211.254 299.49 207.984 304.417C206.528 298.44 204.884 285.825 211.677 279.764V279.781Z" fill="black"/>
<path d="M278.201 271.01C279.268 277.207 279.505 296.103 269.798 353.385L212.118 352.25C213.219 328.85 213.337 314.407 202.394 266.116C202.394 266.116 214.489 263.729 226.906 263.373C236.613 263.102 244.575 262.95 253.096 263.881C261.481 264.812 270.679 266.624 274.83 267.505C276.574 267.86 277.896 269.249 278.201 270.993V271.01Z" fill="#285A97"/>
<path d="M221.57 217.436C224.077 231.304 224.84 237.23 232.734 243.664C244.626 253.349 261.108 247.474 262.802 233.183C264.327 220.331 259.973 199.793 245.642 195.661C231.531 191.58 219.063 203.552 221.57 217.436Z" fill="#FFC3BD"/>
<path d="M253.197 225.699C253.417 232.895 259.634 239.245 262.379 240.803C253.688 247.999 228.092 246.119 220.605 241.886C211 236.671 203.987 208.919 220.08 199.319C228.55 182.674 262.362 188.448 261.04 201.994C258.449 203.281 262.836 215.54 253.18 225.699H253.197Z" fill="#263238"/>
<path d="M236.935 180.676C242.237 182.302 239.544 190.294 236.325 194.086L231.785 194.865C231.785 194.865 226.568 193.24 224.874 187.381C223.18 181.523 231.65 179.051 236.952 180.676H236.935Z" fill="#263238"/>
<path d="M218.928 271.23C206.697 265.371 217.047 263.17 214.659 255.212C211.898 246.001 215.675 241.785 221.807 245.628C227.94 249.472 234.038 252.029 243.931 250.42C253.807 248.828 269.256 250.081 265.411 256.583C260.837 264.321 267.613 262.086 264.937 265.591C257.449 275.395 227.669 275.378 218.945 271.213L218.928 271.23Z" fill="#263238"/>
<path d="M255.738 219.383C257.195 222.668 255.179 223.244 255.416 225.563C255.942 230.643 253.604 230.423 251.791 227.866C250.165 225.563 248.488 220.992 250.013 218.3C251.503 215.658 254.434 216.437 255.738 219.383Z" fill="#FFC3BD"/>
<path d="M254.569 353.097C254.569 353.097 245.777 450.187 236.901 504.827C229.735 548.969 223.688 652.222 223.688 652.222H204.342C204.342 652.222 198.041 551.442 201.784 507.723C211.288 397.104 191.553 387.69 212.118 352.268L254.569 353.097Z" fill="#263238"/>
<path opacity="0.4" d="M234.885 385.556C239.933 392.956 246.658 401.489 248.827 410.514C247.082 426.888 245.049 445.005 242.847 462.429C237.545 447.782 228.414 418.506 234.885 385.556Z" fill="black"/>
<path d="M269.798 353.385C269.798 353.385 287.755 466.018 293.125 508.992C298.715 553.676 253.977 644.789 253.977 644.789L234.75 634.206C234.75 634.206 260.431 539.809 258.669 517.052C252.384 469.218 218.724 352.403 218.724 352.403L269.798 353.402V353.385Z" fill="#263238"/>
<path d="M253.96 649.53L231.446 638.101L234.563 629.296L258.686 641.504L253.96 649.53Z" fill="#285A97"/>
<path d="M226.347 652.612H201.7L200.294 643.959L226.347 643.079V652.612Z" fill="#285A97"/>
<path d="M239.849 662.873C239.781 662.771 239.781 662.636 239.832 662.534C239.899 662.415 240.035 662.348 240.17 662.365C240.865 662.483 246.896 663.584 247.98 665.328C247.997 665.362 248.031 665.412 248.048 665.446C248.217 665.802 248.2 666.157 248.014 666.513C247.675 667.089 247.201 667.394 246.591 667.444C244.541 667.614 241.526 664.684 239.899 662.923C239.899 662.923 239.866 662.89 239.866 662.873H239.849ZM247.421 665.666C246.811 664.701 243.558 663.736 241.085 663.228C243.372 665.565 245.371 666.869 246.506 666.784C246.913 666.75 247.217 666.547 247.438 666.157C247.522 666.005 247.539 665.87 247.455 665.734C247.455 665.717 247.438 665.683 247.421 665.666Z" fill="#285A97"/>
<path d="M239.849 662.873C239.849 662.873 239.832 662.822 239.815 662.805C239.781 662.686 239.798 662.568 239.865 662.483C239.967 662.365 242.406 659.52 244.71 659.418C245.422 659.385 246.049 659.622 246.574 660.096C247.285 660.739 247.234 661.281 247.065 661.62C246.37 663.059 241.881 663.465 240.069 663.042C239.984 663.025 239.899 662.957 239.849 662.89V662.873ZM246.404 660.892C246.354 660.807 246.269 660.705 246.133 660.587C245.744 660.231 245.303 660.079 244.778 660.096C243.27 660.163 241.576 661.704 240.814 662.483C242.813 662.703 246.049 662.162 246.472 661.298C246.506 661.247 246.557 661.112 246.421 660.892H246.404Z" fill="#285A97"/>
<path d="M240.306 660.824L227.228 651.105C226.754 650.749 226.144 650.783 225.754 651.189L217.115 660.13C216.217 661.061 216.438 662.737 217.556 663.533C222.163 666.852 224.552 668.223 230.311 672.49C233.852 675.115 240.916 680.905 245.811 684.546C250.589 688.102 254.298 683.682 252.571 681.735C244.795 673.049 243.084 667.749 241.78 662.974C241.543 662.111 241.017 661.349 240.323 660.841L240.306 660.824Z" fill="#263238"/>
<path d="M211.288 348.864L208.662 353.961C208.459 354.35 208.933 354.773 209.594 354.79L270.086 355.976C270.612 355.976 271.035 355.738 271.069 355.417L271.611 350.269C271.645 349.914 271.205 349.609 270.629 349.592L212.219 348.441C211.796 348.441 211.406 348.593 211.271 348.847L211.288 348.864Z" fill="#2F6AA5"/>
<path d="M219.097 355.535L217.539 355.501C217.234 355.501 216.996 355.332 217.013 355.129L217.793 348.458C217.81 348.254 218.081 348.102 218.403 348.119L219.961 348.153C220.266 348.153 220.503 348.322 220.486 348.525L219.707 355.197C219.69 355.4 219.419 355.552 219.097 355.535Z" fill="#263238"/>
<path d="M257.009 356.28L255.45 356.247C255.145 356.247 254.908 356.077 254.925 355.874L255.704 349.203C255.721 349 255.992 348.847 256.314 348.864L257.873 348.898C258.178 348.898 258.415 349.067 258.398 349.27L257.619 355.942C257.602 356.145 257.331 356.297 257.009 356.28Z" fill="#263238"/>
<path opacity="0.4" d="M277.404 299.947C277.133 302.622 276.812 305.501 276.439 308.633C269.358 304.485 259.482 295.595 257.788 290.143C260.973 290.617 271.272 296.493 277.404 299.947Z" fill="black"/>
<path d="M268.545 282.523C264.174 288.992 260.464 295.494 256.992 302.368C253.536 309.226 250.47 316.337 248.335 324.194C247.641 326.734 247.455 329.409 247.641 331.779C247.81 334.184 248.285 336.402 248.878 338.501C250.114 342.667 251.91 346.358 253.892 349.829C257.94 356.737 262.717 362.664 268.257 368.184L273.729 363.527C269.917 357.601 266.326 351.218 263.649 344.919C262.311 341.769 261.278 338.569 260.668 335.572C260.109 332.558 260.16 329.832 260.888 327.953C261.989 324.803 263.395 321.637 264.852 318.471C266.36 315.304 268.003 312.155 269.68 309.022C271.374 305.89 273.203 302.791 275.033 299.71C276.829 296.628 278.794 293.512 280.606 290.6L268.528 282.557L268.545 282.523Z" fill="#FFC3BD"/>
<path d="M285.366 277.681C286.569 284.86 279.59 306.381 279.59 306.381L256.67 290.126C256.67 290.126 259.617 274.819 269.002 269.164C275.965 264.965 284.13 270.18 285.383 277.681H285.366Z" fill="#285A97"/>
<path d="M265.801 366.169L269.087 379.274L279.217 372.501C279.217 372.501 275.152 362.63 269.629 360.666L265.801 366.152V366.169Z" fill="#FFC3BD"/>
<path d="M273.085 388.638L282.114 383.491L279.234 372.519L269.087 379.275L273.085 388.638Z" fill="#FFC3BD"/>
</g>
<defs>
<filter id="filter0_d_178_2" x="0.766235" y="0" width="608" height="739" filterUnits="userSpaceOnUse" color-interpolation-filters="sRGB">
<feFlood flood-opacity="0" result="BackgroundImageFix"/>
<feColorMatrix in="SourceAlpha" type="matrix" values="0 0 0 0 0 0 0 0 0 0 0 0 0 0 0 0 0 0 127 0" result="hardAlpha"/>
<feOffset dy="4"/>
<feGaussianBlur stdDeviation="2"/>
<feComposite in2="hardAlpha" operator="out"/>
<feColorMatrix type="matrix" values="0 0 0 0 0 0 0 0 0 0 0 0 0 0 0 0 0 0 0.25 0"/>
<feBlend mode="normal" in2="BackgroundImageFix" result="effect1_dropShadow_178_2"/>
<feBlend mode="normal" in="SourceGraphic" in2="effect1_dropShadow_178_2" result="shape"/>
</filter>
<clipPath id="clip0_178_2">
<rect width="600" height="679" fill="white" transform="translate(4.76624 26)"/>
</clipPath>
</defs>
</svg>
