<svg id="Laag_1" data-name="Laag 1" xmlns="http://www.w3.org/2000/svg" viewBox="0 0 101.34 99.82">
  <g>
    <path d="M50.27,90.91a26.77,26.77,0,0,0,27-.1L63.85,40.67h-.12Z" transform="translate(-13.11 -25.18)" fill="#86c2eb"/>
    <path d="M45.35,106.57a18.43,18.43,0,0,0,36.85,0H75.12a11.34,11.34,0,0,1-22.68,0Z" transform="translate(-13.11 -25.18)" fill="#e73331"/>
    <path d="M28.35,101.61A11.34,11.34,0,1,0,17,90.27a11.34,11.34,0,0,0,11.34,11.34" transform="translate(-13.11 -25.18)" fill="#fbd4c8"/>
    <path d="M99.21,101.61A11.34,11.34,0,1,0,87.87,90.27a11.34,11.34,0,0,0,11.34,11.34" transform="translate(-13.11 -25.18)" fill="#fbd4c8"/>
    <path d="M31.54,47.86A11.34,11.34,0,1,0,20.2,36.52,11.34,11.34,0,0,0,31.54,47.86" transform="translate(-13.11 -25.18)" fill="#86c2eb"/>
    <path d="M50,38.64H13.11a18.43,18.43,0,1,0,36.85,0" transform="translate(-13.11 -25.18)" fill="#453a36"/>
    <path d="M96,34.39a11.34,11.34,0,1,0,11.34,11.34A11.34,11.34,0,0,0,96,34.39" transform="translate(-13.11 -25.18)" fill="#86c2eb"/>
    <path d="M77.6,43.6h36.85a18.43,18.43,0,0,0-36.85,0" transform="translate(-13.11 -25.18)" fill="#453a36"/>
  </g>
</svg>
