<?xml version="1.0" encoding="UTF-8"?>
<svg width="147px" height="226px" viewBox="0 0 147 226" version="1.1" xmlns="http://www.w3.org/2000/svg" xmlns:xlink="http://www.w3.org/1999/xlink">
    <title>cinemini logo_kirjaga</title>
    <g id="Page-1" stroke="none" stroke-width="1" fill="none" fill-rule="evenodd">
        <g id="Desktop" transform="translate(-439.000000, -351.000000)" fill-rule="nonzero">
            <g id="cinemini-logo_kirjaga" transform="translate(439.000000, 351.000000)">
                <g id="Group" transform="translate(5.000000, 0.000000)">
                    <path d="M50.2403357,88.618126 C61.5401096,95.1437285 75.4884179,95.0922058 86.7394154,88.4833046 L68.598021,20.8838395 L68.4358028,20.8838395 L50.2403357,88.618126 Z" id="Path" fill="#FFFFFF"></path>
                    <path d="M43.5893923,109.731162 C43.9046159,123.224949 54.9631099,134 68.4966346,134 C82.0301594,134 93.0886534,123.224949 93.403877,109.731162 L83.8330072,109.731162 C83.8330072,118.174906 76.9697055,125.019912 68.5033937,125.019912 C60.037082,125.019912 53.1737803,118.174906 53.1737803,109.731162 L43.5893923,109.731162 Z" id="Path" fill="#E73331"></path>
                    <path d="M20.6084902,103.044019 C29.0730382,103.036575 35.929558,96.188275 35.9245856,87.7462887 C35.9196078,79.3043023 29.0550209,72.464046 20.59047,72.4665246 C12.125919,72.4690046 5.26535858,79.313281 5.26535858,87.7552688 C5.26535858,91.8100975 6.88043822,95.6988509 9.75529842,98.5660478 C12.6301586,101.433245 16.5293058,103.044019 20.5949721,103.044019" id="Path" fill="#FBD4C8"></path>
                    <path d="M116.398297,103.044019 C124.864609,103.044019 131.727911,96.1990124 131.727911,87.7552688 C131.727911,79.3115253 124.864609,72.4665187 116.398297,72.4665187 C107.931985,72.4665187 101.068684,79.3115253 101.068684,87.7552688 C101.068684,91.8100975 102.683763,95.6988509 105.558624,98.5660478 C108.433484,101.433245 112.332631,103.044019 116.398297,103.044019" id="Path" fill="#FBD4C8"></path>
                    <path d="M24.9207889,30.5775003 C33.3871007,30.5775003 40.2504024,23.7324937 40.2504024,15.2887502 C40.2504024,6.84500661 33.3871007,0 24.9207889,0 C16.4544772,0 9.59117544,6.84500661 9.59117544,15.2887502 C9.59117544,23.7324937 16.4544772,30.5775003 24.9207889,30.5775003" id="Path" fill="#FFFFFF"></path>
                    <path d="M49.8753449,18.1469645 L0.00678746856,18.1469645 C-0.203756119,27.1597095 4.49695126,35.5791637 12.2898734,40.1472448 C20.0827956,44.7153258 29.745264,44.7153258 37.5381862,40.1472448 C45.3311084,35.5791637 50.0318158,27.1597095 49.8212722,18.1469645" id="Path" fill="#453A36"></path>
                    <path d="M112.058962,12.4170537 C103.59265,12.4170537 96.7293487,19.2620603 96.7293487,27.7058039 C96.7293487,36.1495474 103.59265,42.9945541 112.058962,42.9945541 C120.525274,42.9945541 127.388576,36.1495474 127.388576,27.7058039 C127.388576,19.2620603 120.525274,12.4170537 112.058962,12.4170537" id="Path" fill="#FFFFFF"></path>
                    <path d="M87.1855153,24.8341074 L137,24.8341074 C136.684776,11.34032 125.626282,0.56526937 112.092758,0.56526937 C98.5592329,0.56526937 87.5007389,11.34032 87.1855153,24.8341074" id="Path" fill="#453A36"></path>
                </g>
                <g id="Group" transform="translate(0.000000, 173.000000)" fill="#453A36">
                    <path d="M142.421926,18.5567728 C142.436286,19.0565134 142.675025,19.5233005 143.072066,19.8279402 C143.544147,20.2242722 144.149141,20.4272272 144.765141,20.3959086 C145.36095,20.4294391 145.94567,20.2251126 146.390493,19.8279402 C146.767878,19.5118915 146.990087,19.0484594 147,18.5567728 L147,1.89636602 C146.990087,1.4046794 146.767878,0.941247307 146.390493,0.625198622 C145.94567,0.228026223 145.36095,0.0236997057 144.765141,0.0572302109 C144.149141,0.0259115892 143.544147,0.228866533 143.072066,0.625198622 C142.675025,0.929838285 142.436286,1.39662538 142.421926,1.89636602 L142.421926,18.5567728 Z M123.920004,0.69281391 C122.900861,1.07739478 121.976853,1.6770446 121.211084,2.45081137 C120.470412,3.22209388 119.906574,4.1449495 119.558643,5.15542286 C119.188242,6.25772944 119.005121,7.41412883 119.016859,8.57675638 L119.016859,18.4756344 C119.031675,18.9721627 119.264489,19.437051 119.653455,19.7468018 C120.131664,20.1416576 120.740216,20.3441858 121.360074,20.3147702 C121.955251,20.3438868 122.538341,20.1401301 122.985426,19.7468018 C123.362811,19.4307531 123.585021,18.967321 123.594933,18.4756344 L123.594933,8.42800275 C123.504581,7.24778921 123.934991,6.08703756 124.773313,5.25008426 C125.593652,4.56065546 126.640837,4.19930074 127.712491,4.23585495 C128.780316,4.19747096 129.823904,4.55925149 130.638125,5.25008426 C131.466559,6.09179471 131.886853,7.25193507 131.789415,8.42800275 L131.789415,18.4756344 C131.799065,18.9703865 132.027095,19.4356216 132.412467,19.7468018 C132.871406,20.1381487 133.461941,20.3411241 134.064908,20.3147702 C134.675561,20.337428 135.27327,20.1353003 135.744438,19.7468018 C136.149688,19.4475254 136.39446,18.9787108 136.408124,18.4756344 L136.408124,8.26572606 C136.422103,7.12060991 136.238841,5.98161439 135.86634,4.89848477 C135.520477,3.91879847 134.955326,3.03079562 134.213899,2.30205774 C133.441369,1.55939886 132.517343,0.992026723 131.504979,0.63872168 C130.288602,0.227707694 129.009917,0.0309478756 127.726036,0.0572302109 C126.437857,0.0339200888 125.156527,0.249428137 123.947093,0.69281391 M108.370804,18.5567728 C108.38562,19.053301 108.618434,19.5181894 109.0074,19.8279402 C109.485609,20.2227959 110.094162,20.4253241 110.71402,20.3959086 C111.309197,20.4250252 111.892286,20.2212685 112.339372,19.8279402 C112.716757,19.5118915 112.938966,19.0484594 112.948879,18.5567728 L112.948879,1.89636602 C112.938966,1.4046794 112.716757,0.941247307 112.339372,0.625198622 C111.892286,0.231870315 111.309197,0.0281136241 110.71402,0.0572302109 C110.094162,0.0278146317 109.485609,0.230342849 109.0074,0.625198622 C108.618434,0.934949421 108.38562,1.39983777 108.370804,1.89636602 L108.370804,18.5567728 Z M90.7628256,0.976798115 C89.8107049,1.51106231 89.0021317,2.26731414 88.4060654,3.18105647 C87.8047631,2.24186505 86.975428,1.46967028 85.9951268,0.936228943 C84.8397494,0.333209142 83.545883,0.0440678767 82.2432729,0.0977993832 C80.9623071,0.0516708875 79.6854519,0.267976846 78.491419,0.733383082 C77.5592142,1.11883621 76.7426821,1.7384137 76.1211143,2.53194972 C75.5144797,3.33108633 75.0934618,4.25492885 74.8885558,5.2365612 C74.6417833,6.36001186 74.5236393,7.50781549 74.5363962,8.65789473 L74.5363962,18.5162036 C74.5512121,19.0127318 74.7840265,19.4776202 75.1729923,19.787371 C75.6512013,20.1822268 76.2597538,20.384755 76.8796118,20.3553394 C77.4747887,20.384456 78.057878,20.1806993 78.5049636,19.787371 C78.8823488,19.4713223 79.104558,19.0078902 79.1144706,18.5162036 L79.1144706,8.5091411 C79.0253645,7.39289975 79.3009971,6.27788876 79.9000573,5.3312226 C80.594276,4.58848386 81.5967815,4.2131422 82.6089771,4.3169933 C84.8844697,4.3169933 86.022216,5.66929904 86.022216,8.5091411 L86.022216,18.8001878 L86.022216,18.8001878 C86.1358755,19.229571 86.400247,19.6039016 86.7671689,19.8549863 C87.2011101,20.1620408 87.7258771,20.3144575 88.2570748,20.2877241 L88.4466992,20.2877241 C88.8283684,20.2713579 89.2022547,20.1745786 89.5438117,20.0037399 C89.840949,19.8505516 90.0965412,19.627844 90.2887646,19.3546331 C90.3339171,19.3175774 90.3708234,19.2715179 90.3971214,19.2194026 C90.3917274,19.1744866 90.3917274,19.129088 90.3971214,19.084172 L90.478389,18.9624645 L90.5596566,18.610865 L90.5596566,8.44152581 C90.5596566,5.64225292 91.6838583,4.24937801 93.9593509,4.24937801 C94.9715465,4.14552691 95.974052,4.52086857 96.6682707,5.26360732 C97.283317,6.20420715 97.5690825,7.32167563 97.4809466,8.44152581 L97.4809466,18.4485883 C97.4909095,18.9373201 97.7073875,19.3990602 98.076909,19.7197557 C98.5141861,20.1114525 99.0883554,20.3154928 99.6751716,20.2877241 C100.299983,20.3232686 100.914946,20.1202184 101.395336,19.7197557 C101.780707,19.4085755 102.008738,18.9433403 102.018387,18.4485883 L102.018387,8.59027944 C102.031144,7.44020021 101.913,6.29239657 101.666228,5.16894591 C101.458058,4.19322952 101.047411,3.27189363 100.460758,2.46433443 C99.8416628,1.67394749 99.0303632,1.05480248 98.1039982,0.665767795 C96.9050333,0.201118975 95.6239183,-0.0151279521 94.3385997,0.0301840961 C93.0221936,-0.0327209289 91.712865,0.256740722 90.546112,0.868613656 M63.9038861,4.72268502 C64.6580707,5.34657108 65.074475,6.28825195 65.0280878,7.26501981 L65.0280878,7.86003434 L57.0367745,7.86003434 C57.0828613,6.76978164 57.503793,5.72867748 58.2286992,4.91200782 C58.9565983,4.15047405 59.9792171,3.74109062 61.0324311,3.78959406 C62.0728875,3.74704127 63.0933762,4.08345921 63.9038861,4.73620808 M68.9018431,5.16894591 C68.2481791,3.1732884 66.7686738,1.55334472 64.8384634,0.719860024 C63.6400361,0.213408254 62.3468876,-0.0309770033 61.0459757,0.00313798126 C59.861463,-0.0135562098 58.6860589,0.211946546 57.592103,0.665767795 C55.5660288,1.50378108 53.9543155,3.10806962 53.1088408,5.12837674 C52.6729226,6.15469988 52.4516825,7.25914112 52.4585382,8.37391052 L52.4585382,12.5254891 C52.4527789,13.571795 52.6794546,14.6063784 53.1223854,15.554654 C53.571236,16.5012857 54.2070042,17.3476285 54.9915401,18.0428966 C55.8270978,18.773407 56.7916838,19.3420662 57.8359058,19.7197557 C59.0016814,20.1493258 60.2369006,20.360217 61.4794029,20.3418163 C62.3923523,20.3460279 63.302291,20.2370089 64.1883227,20.017263 C64.9561621,19.8238288 65.6975445,19.5377379 66.3960923,19.1653103 C66.9524567,18.8775549 67.4561704,18.4980845 67.8859982,18.0428966 C68.2191114,17.7057198 68.4167117,17.2582174 68.4413267,16.7852522 C68.4328796,16.3362664 68.2648574,15.9048967 67.9672657,15.5681771 C67.6491392,15.2410186 67.2041769,15.0682529 66.7482519,15.0948701 C66.4175402,15.108251 66.0957803,15.2060222 65.8136745,15.3788543 L64.7571958,15.9197766 C64.3238045,16.1033575 63.8685951,16.2306134 63.4027359,16.2984222 C62.7617383,16.3948439 62.1140585,16.4400641 61.4658583,16.4336527 C60.2646326,16.5111198 59.0828873,16.1015796 58.1880654,15.2977159 C57.4031219,14.4947115 56.9863329,13.4029924 57.0367745,12.2820741 L57.0367745,11.2678448 L66.3148247,11.2678448 C67.1695259,11.3549937 68.0223318,11.0858573 68.6715849,10.5240767 C69.2193456,9.78024547 69.4703972,8.85958026 69.375904,7.94117269 C69.3673239,7.01979682 69.2071703,6.10608892 68.9018431,5.2365612 M35.040346,0.706336967 C34.0162698,1.10676448 33.0918623,1.72513248 32.3314262,2.51842666 C31.5949421,3.29048039 31.0356864,4.21339976 30.6925297,5.22303814 C30.3111157,6.32295681 30.1232339,7.48048124 30.1372012,8.64437167 L30.1372012,18.5432497 C30.1515613,19.0429903 30.3903004,19.5097774 30.7873419,19.8144171 C31.2655509,20.2092729 31.8741034,20.4118011 32.4939614,20.3823855 C33.0891383,20.4115021 33.6722276,20.2077454 34.1193132,19.8144171 C34.4966984,19.4983684 34.7189076,19.0349363 34.7288202,18.5432497 L34.7288202,8.49561804 C34.6349303,7.31748084 35.06028,6.1570367 35.8936557,5.31769955 C36.715277,4.63053022 37.761568,4.26948404 38.8328336,4.30347024 C39.9006583,4.26508625 40.9442459,4.62686678 41.758467,5.31769955 C42.5869016,6.15941 43.0071952,7.31955036 42.9097579,8.49561804 L42.9097579,18.5432497 C42.9245738,19.039778 43.1573882,19.5046663 43.546354,19.8144171 C43.9983255,20.2085726 44.5858835,20.412194 45.1852505,20.3823855 C45.7999629,20.4046032 46.4017671,20.2027186 46.8783253,19.8144171 C47.2789506,19.5112174 47.5224769,19.0447875 47.5420107,18.5432497 L47.5420107,8.26572606 C47.5516355,7.11982527 47.3637878,5.98080832 46.9866821,4.89848477 C46.6469355,3.91902969 46.0861937,3.03067271 45.3477857,2.30205774 C44.5752558,1.55939886 43.6512299,0.992026723 42.6388659,0.63872168 C41.417804,0.227760478 40.1346837,0.0310232507 38.8463782,0.0572302109 C37.5581997,0.0339200888 36.2768694,0.249428137 35.0674352,0.69281391 M19.6265925,18.5567728 C19.6409526,19.0565134 19.8796917,19.5233005 20.2767332,19.8279402 C20.7549422,20.2227959 21.3634947,20.4253241 21.9833527,20.3959086 C22.5785296,20.4250252 23.1616189,20.2212685 23.6087045,19.8279402 C23.9860897,19.5118915 24.2082989,19.0484594 24.2182115,18.5567728 L24.2182115,1.89636602 C24.2082989,1.4046794 23.9860897,0.941247307 23.6087045,0.625198622 C23.1616189,0.231870315 22.5785296,0.0281136241 21.9833527,0.0572302109 C21.3634947,0.0278146317 20.7549422,0.230342849 20.2767332,0.625198622 C19.8796917,0.929838285 19.6409526,1.39662538 19.6265925,1.89636602 L19.6265925,18.5567728 Z M0.000468748361,11.9169516 C-0.0101294066,13.0409237 0.15904926,14.1593792 0.501618906,15.2301006 C0.816399308,16.2316276 1.34297,17.1539666 2.04570317,17.9347121 C2.79591113,18.7465384 3.72265198,19.37572 4.75462294,19.7738479 C6.017795,20.2474274 7.36083198,20.4724416 8.7096458,20.4364777 C9.91292388,20.4475811 11.1104598,20.2696055 12.2583307,19.9090785 C13.1908636,19.6562172 14.0201016,19.116887 14.6286355,18.36745 C14.9323943,17.9846202 15.0821236,17.5023906 15.0485181,17.0151442 C15.0082576,16.5804391 14.8330554,16.1691323 14.5473679,15.8386382 C14.2441402,15.5084963 13.8387504,15.2894578 13.396077,15.2165776 C12.8580758,15.1353578 12.3084348,15.2403393 11.8384481,15.5140848 C11.4302067,15.7263249 10.9983087,15.8897312 10.5517112,16.0009149 C9.9498411,16.1533304 9.33051186,16.2260767 8.7096458,16.2172838 C7.55590467,16.3045534 6.4263716,15.8554548 5.64856647,15.0002087 C4.92957911,14.0601739 4.56944524,12.8951959 4.63272155,11.7141057 L4.63272155,8.90130976 C4.56944524,7.72021959 4.92957911,6.55524157 5.64856647,5.61520681 C6.4263716,4.7599607 7.55590467,4.31086204 8.7096458,4.39813164 C9.29373659,4.38160977 9.876136,4.46860182 10.4298099,4.65506973 C10.8755625,4.80381579 11.306361,4.99397116 11.7165467,5.22303814 C12.2758216,5.5642713 12.9458111,5.67575863 13.5857014,5.53406846 C14.0539204,5.40871291 14.4591626,5.11489791 14.7234477,4.70916196 C14.9707246,4.30340191 15.0844094,3.83046857 15.0485181,3.35685622 C15.0334183,2.88041566 14.8401261,2.4269013 14.5067341,2.08568882 C13.8291021,1.46902054 13.0247854,1.00750471 12.1499739,0.733383082 C11.042715,0.358876785 9.87843472,0.180393653 8.7096458,0.205983843 C7.36083198,0.170019981 6.017795,0.39503419 4.75462294,0.868613656 C3.72265198,1.26674161 2.79591113,1.89592314 2.04570317,2.70774946 C1.34297,3.48849501 0.816399308,4.41083401 0.501618906,5.41236095 C0.15904926,6.48308238 -0.0101294066,7.60153786 0.000468748361,8.72551002 L0.000468748361,11.9169516 Z" id="Shape"></path>
                    <path d="M98.1852658,45.5758415 C98.4376754,46.2680157 98.8400463,46.896009 99.3636459,47.4149773 C99.8586791,47.9002713 100.455456,48.269777 101.110899,48.4968219 C102.363971,48.9124003 103.71272,48.9453591 104.984654,48.5914833 C105.521945,48.438641 106.02368,48.181279 106.461016,47.8341921 C106.897386,47.5004737 107.261403,47.0818296 107.531039,46.6035938 C107.828298,46.0735103 108.017064,45.489724 108.086368,44.8861655 L105.986955,44.8861655 C105.882055,45.5527011 105.510542,46.1481291 104.957565,46.5359786 C104.376693,46.9066722 103.695992,47.0907357 103.007143,47.0633778 C102.165587,47.1090243 101.345497,46.7884154 100.75874,46.1843791 C100.149454,45.3819014 99.8425652,44.3908869 99.8918852,43.3851062 L108.18118,43.3851062 C108.223158,42.4066674 108.122786,41.4273221 107.883199,40.4776488 C107.684941,39.7251171 107.334634,39.0210158 106.853809,38.408621 C106.420472,37.869087 105.862825,37.4422374 105.228457,37.1644998 C104.549974,36.8860118 103.821912,36.7479921 103.088411,36.758808 C102.309657,36.743256 101.537137,36.9002855 100.826463,37.218592 C100.167105,37.535993 99.5882776,37.9983181 99.1333877,38.5708977 C98.6487589,39.1463527 98.2848828,39.8131643 98.0633644,40.5317411 C97.8110039,41.3321145 97.687565,42.1674258 97.6976602,43.0064606 C97.672042,43.9006276 97.8191992,44.7913493 98.1310874,45.6299337 M99.9596082,41.8570007 C99.9706308,41.3448367 100.081025,40.8396666 100.284679,40.3694644 C100.453514,39.9907396 100.697755,39.6502667 101.002542,39.3687581 C101.28124,39.1163324 101.608418,38.9230979 101.964209,38.8007897 C102.298326,38.6781379 102.651167,38.6140869 103.007143,38.6114669 C104.867268,38.6114669 105.883113,39.6933115 106.054678,41.8570007 L99.9596082,41.8570007 Z M85.4127091,37.1104075 L85.4127091,53 L87.4850327,53 L87.4850327,47.0769009 C87.8611504,47.6347039 88.3619189,48.097641 88.9478494,48.4292066 C89.5144117,48.6980503 90.1356246,48.8322781 90.7628256,48.8213753 C92.1430628,48.8753712 93.4645586,48.2609969 94.3115105,47.1715623 C95.2704621,45.8051446 95.7469597,44.159085 95.6659704,42.4925844 C95.6793364,41.6577623 95.5558032,40.8263812 95.3002662,40.0313879 C95.0829681,39.378121 94.7427814,38.7722665 94.2979659,38.2463444 C93.4767993,37.2867713 92.2706439,36.7416434 91.0066284,36.758808 C90.2812001,36.7321506 89.5629438,36.9102573 88.9343048,37.2726842 C88.3702159,37.6282926 87.8785012,38.0871082 87.4850327,38.62499 L87.4850327,37.0563153 L85.4127091,37.1104075 Z M87.6204787,41.1673248 C87.7417834,40.6584054 87.9577237,40.1767529 88.2570748,39.7474037 C88.503239,39.3996334 88.8342436,39.1203562 89.2187413,38.9360203 C89.6012091,38.7619114 90.0174362,38.674181 90.4377552,38.6790822 C91.3092525,38.6402257 92.1461604,39.022779 92.6861586,39.7068346 C93.2787923,40.6114957 93.5593861,41.6846034 93.48529,42.7630455 C93.5052446,43.4991757 93.4092627,44.2338668 93.2008534,44.9402578 C93.0448439,45.4387334 92.7865224,45.8992882 92.4423559,46.2925635 C92.1698605,46.5883616 91.8310098,46.8154476 91.4536001,46.9551933 C91.1272441,47.0702117 90.7838446,47.1296397 90.4377552,47.1309931 C89.5896046,47.1807005 88.7672279,46.8302443 88.216441,46.1843791 C87.5951351,45.3276253 87.302001,44.2768994 87.3902205,43.2228295 C87.3811317,42.5396945 87.4584966,41.8581486 87.6204787,41.1943709 M72.450528,45.6299337 C72.6970859,46.3178306 73.0951483,46.9417021 73.6153635,47.4555465 C74.0897667,47.9241802 74.6638225,48.2800834 75.2948937,48.4968219 C75.9243033,48.7248494 76.5893091,48.8393232 77.2588606,48.8348983 C78.1434369,48.8632059 79.0230364,48.6921879 79.8323343,48.3345452 C80.5019937,48.0214277 81.0905521,47.558733 81.5524984,46.9822394 C81.993825,46.3767984 82.3156003,45.6929659 82.5006203,44.9673039 C82.6932979,44.1795013 82.7888182,43.3711407 82.7850569,42.5601997 C82.8066479,41.669534 82.6548492,40.7831538 82.3380851,39.9502496 C82.0729521,39.2684302 81.6720797,38.6473761 81.159705,38.1246368 C80.6818892,37.650502 80.1031955,37.2899715 79.4666302,37.0698384 C78.8210062,36.8307927 78.1370425,36.7116331 77.4484849,36.7182389 C76.6408297,36.7040819 75.8402244,36.8704168 75.1052693,37.2050689 C74.4370729,37.5143988 73.8521145,37.9779131 73.3986499,38.5573747 C72.9250232,39.1461087 72.5707831,39.8213097 72.3557158,40.5452641 C72.122191,41.339939 72.0080764,42.1648146 72.0171008,42.9929375 C71.9874386,43.9138257 72.1345602,44.8318736 72.450528,45.697549 M74.4009502,40.9644789 C74.5363772,40.4739955 74.7664246,40.0146325 75.0781801,39.6121732 C75.3516378,39.2646699 75.7111,38.9943368 76.1211143,38.8278358 C76.5477143,38.6422666 77.0105337,38.5544707 77.4755741,38.5708977 C77.9360794,38.5658662 78.3940905,38.6390314 78.830034,38.7872667 C79.2189817,38.9385961 79.5636267,39.1850439 79.8323343,39.5039887 C80.1460777,39.8727685 80.3728843,40.3071748 80.4960197,40.7751561 C80.6718746,41.3904639 80.754061,42.0286746 80.7398225,42.6683841 C80.7463867,43.2635516 80.6873382,43.8576333 80.5637427,44.4399047 C80.4718048,44.9486824 80.2833134,45.4352265 80.0084141,45.8733487 C79.7599375,46.2650074 79.4147931,46.5863194 79.0061138,46.8064397 C78.5400797,47.0398657 78.0239296,47.1559309 77.5026633,47.1445161 C77.0774721,47.1498998 76.6549656,47.0765373 76.2565602,46.9281472 C75.8604591,46.7890196 75.5062511,46.5517055 75.2271707,46.2384713 C74.9034063,45.8681688 74.6590917,45.4355453 74.509307,44.9673039 C74.3277342,44.3298144 74.2410245,43.6691351 74.2519596,43.0064606 C74.2342579,42.3211925 74.3210323,41.6372212 74.509307,40.978002 M64.9603648,37.1239306 L64.9603648,48.4292066 L67.046233,48.4292066 L67.046233,42.0328004 C67.0365519,41.5703245 67.1194392,41.1105722 67.2900358,40.6804947 C67.434122,40.3123145 67.6505736,39.9766585 67.9266319,39.6933115 C68.1927497,39.4347628 68.5114957,39.23644 68.8612093,39.11182 C69.2296198,38.9755841 69.6196372,38.9068669 70.0125002,38.9089742 C70.2306808,38.9140446 70.4480976,38.9366562 70.6626409,38.9765895 L70.6626409,36.8129003 C70.5782424,36.7911433 70.489692,36.7911433 70.4052935,36.8129003 L70.0937678,36.8129003 C69.4110203,36.7861722 68.7433753,37.0180272 68.2246131,37.462007 C67.6773093,37.8941334 67.2176046,38.4265427 66.8701532,39.0306817 L66.8701532,37.0833614 L64.9603648,37.1239306 Z M52.2826203,37.1239306 L52.2826203,44.3722894 C52.1981732,45.5700825 52.6495169,46.7436904 53.5151788,47.577254 C54.4541516,48.3468006 55.6476285,48.7375612 56.8606947,48.6726216 C57.5228068,48.6813369 58.181815,48.5808152 58.8111169,48.3751144 C59.3663794,48.1860536 59.8777308,47.8870898 60.3145674,47.4961156 C60.7247197,47.1190027 61.0481782,46.6576539 61.2626893,46.1438099 C61.4991411,45.5411008 61.6142085,44.897748 61.6013043,44.2505819 L61.6013043,37.0563153 L59.3935347,37.0563153 L59.3935347,44.1964896 C59.4014712,44.5935973 59.3324839,44.9884956 59.1903657,45.3594726 C59.0691105,45.6873928 58.8745541,45.9833883 58.6214925,46.2249482 C58.3831278,46.4528081 58.1024614,46.6319652 57.795272,46.7523475 C57.4804311,46.8765859 57.145055,46.9408023 56.8065163,46.9416703 C56.1215698,46.9621461 55.4557088,46.714665 54.9509063,46.2519943 C54.4288962,45.6997218 54.1634721,44.9537904 54.2194979,44.1964896 L54.2194979,37.0563153 L52.2826203,37.1239306 Z M39.4152514,45.6569798 C39.6777979,46.3472955 40.0840505,46.9741418 40.6071761,47.4961156 C41.0993886,47.9783363 41.6910489,48.3475359 42.3408847,48.5779602 C43.5985539,48.9938335 44.9517042,49.0267847 46.2281846,48.6726216 C46.7643217,48.516875 47.2655167,48.2597899 47.7045459,47.9153304 C48.1367503,47.577214 48.4999868,47.1594677 48.7745692,46.6847322 C49.06586,46.1520683 49.2542421,45.5694715 49.3298977,44.9673039 L47.1221281,44.9673039 C47.0172286,45.6338394 46.6457153,46.2292675 46.0927386,46.6171169 C45.5059361,46.9857296 44.8216063,47.169498 44.1287718,47.1445161 C43.2912594,47.1897937 42.4754721,46.8689341 41.893913,46.2655174 C41.2846273,45.4630397 40.9777386,44.4720253 41.0270586,43.4662445 L49.3163531,43.4662445 C49.3542932,42.4871365 49.2493522,41.507726 49.0048274,40.5587872 C48.8110038,39.8071897 48.4653095,39.103095 47.9889825,38.4897594 C47.5506967,37.9496489 46.9885394,37.5229033 46.350086,37.2456381 C45.6758088,36.9689444 44.9525367,36.8309594 44.223584,36.8399464 C43.4448304,36.8243944 42.67231,36.9814238 41.961636,37.2997303 C41.2961032,37.6133569 40.7120675,38.0761401 40.2550165,38.6520361 C39.7802566,39.2341608 39.4174758,39.8989652 39.1849932,40.6128794 C38.9326327,41.4132528 38.8091938,42.2485641 38.819289,43.0875989 C38.8005037,43.9812921 38.9474514,44.8707454 39.2527162,45.7110721 M41.081237,41.938139 C41.0922596,41.4259751 41.2026541,40.920805 41.4063074,40.4506027 C41.5800442,40.0747028 41.8236401,39.7351287 42.1241712,39.4498965 C42.4050026,39.2003744 42.731568,39.0075021 43.0858377,38.8819281 C43.4205718,38.761552 43.7730208,38.6975723 44.1287718,38.6926053 C45.9979264,38.6926053 47.0137713,39.7744498 47.1763065,41.938139 L41.081237,41.938139 Z" id="Shape"></path>
                </g>
            </g>
        </g>
    </g>
</svg>