<svg width="608" height="739" viewBox="0 0 608 739" fill="none" xmlns="http://www.w3.org/2000/svg">
<g filter="url(#filter0_d_178_4)">
<rect x="4" width="600" height="731" fill="#F3F3F3"/>
</g>
<g clip-path="url(#clip0_178_4)">
<path d="M790 657.949H-162V658.425H790V657.949Z" fill="#EBEBEB"/>
<path d="M468.643 693.791H452.097V694.267H468.643V693.791Z" fill="#EBEBEB"/>
<path d="M629.645 670.925H593.107V671.401H629.645V670.925Z" fill="#EBEBEB"/>
<path d="M20.1176 674.126H-62.1162V674.603H20.1176V674.126Z" fill="#EBEBEB"/>
<path d="M49.1346 674.126H37.0823V674.603H49.1346V674.126Z" fill="#EBEBEB"/>
<path d="M266.686 682.167H88.3188V682.644H266.686V682.167Z" fill="#EBEBEB"/>
<path d="M289.267 572.964H-78.3954C-84.393 572.964 -89.2672 568.086 -89.2672 562.084V44.8803C-89.2672 38.878 -84.393 34 -78.3954 34H289.267C295.265 34 300.139 38.878 300.139 44.8803V562.084C300.139 568.086 295.265 572.964 289.267 572.964ZM-78.3954 34.4764C-84.1264 34.4764 -88.7912 39.1448 -88.7912 44.8803V562.084C-88.7912 567.82 -84.1264 572.488 -78.3954 572.488H289.267C294.998 572.488 299.663 567.82 299.663 562.084V44.8803C299.663 39.1448 294.998 34.4764 289.267 34.4764H-78.3954Z" fill="#EBEBEB"/>
<path d="M701.102 572.964H333.44C327.442 572.964 322.568 568.086 322.568 562.084V44.8803C322.568 38.878 327.442 34 333.44 34H701.102C707.1 34 711.974 38.878 711.974 44.8803V562.084C711.974 568.086 707.1 572.964 701.102 572.964ZM333.44 34.4764C327.709 34.4764 323.044 39.1448 323.044 44.8803V562.084C323.044 567.82 327.709 572.488 333.44 572.488H701.102C706.833 572.488 711.498 567.82 711.498 562.084V44.8803C711.498 39.1448 706.833 34.4764 701.102 34.4764H333.44Z" fill="#EBEBEB"/>
<path d="M-46.1226 304.444H93.4786L93.4786 73.4434L-46.1226 73.4434L-46.1226 304.444Z" fill="#F5F5F5"/>
<path d="M-31.9569 294.269H79.3319L79.3319 83.5996H-31.9569L-31.9569 294.269Z" fill="#FAFAFA"/>
<path d="M126.418 385.561H266.019V154.56L126.418 154.56L126.418 385.561Z" fill="#F5F5F5"/>
<path d="M126.418 154.541H123.657V385.542H126.418V154.541Z" fill="#E0E0E0"/>
<path d="M140.584 375.385H251.872L251.872 164.716H140.584L140.584 375.385Z" fill="#FAFAFA"/>
<path d="M36.3967 598.231C39.862 535.407 30.7037 434.303 20.7839 399.337C19.4701 394.707 17.966 389.314 15.7193 388.609C9.22662 386.552 6.31351 396.727 7.13223 400.214C11.0164 417.115 14.5007 458.998 17.985 531.882C19.7177 568.163 17.9469 593.01 22.6308 598.25H36.4157L36.3967 598.231Z" fill="#E6E6E6"/>
<path d="M26.077 458.102C35.1591 428.663 151.684 398.423 118.135 430.092C109.777 437.98 70.8591 458.769 54.8845 480.625C42.4705 497.603 29.9231 526.147 26.6101 542C25.1631 508.693 20.0223 477.729 26.077 458.102Z" fill="#E6E6E6"/>
<path d="M39.3479 495.43C59.6446 450.633 124.571 442.592 107.111 466.239C100.257 475.518 75.1241 486.094 59.1305 507.969C46.7164 524.946 34.169 553.49 30.8561 569.344C29.409 536.036 30.8561 514.161 39.3289 495.45L39.3479 495.43Z" fill="#E6E6E6"/>
<path d="M13.8344 491.62C-10.1941 433.979 -96.9974 429.406 -73.9019 456.178C-65.1245 466.353 -34.451 485.027 -11.2794 509.074C6.73249 527.747 27.0291 558.692 33.9407 575.67C29.4853 540.419 23.5258 514.866 13.8344 491.62Z" fill="#E6E6E6"/>
<path d="M23.9256 427.138C45.4408 387.657 110.558 383.446 91.9745 405.035C84.6822 413.514 60.9393 424.299 45.4407 445.507C33.3884 461.97 18.918 483.464 15.7003 498.822C14.2913 466.505 14.3865 444.649 23.9256 427.157V427.138Z" fill="#E6E6E6"/>
<path d="M5.19021 427.9C-11.7935 403.377 -87.8583 376.376 -68.0376 398.613C-47.265 421.917 -32.509 417.897 -12.8787 438.266C2.3723 454.082 19.5654 480.282 25.4107 494.668C21.6408 464.809 17.3187 445.45 5.19021 427.919V427.9Z" fill="#E6E6E6"/>
<path d="M25.3536 399.661C36.1112 380.263 80.6267 365.991 68.9552 380.873C60.8632 391.201 51.1528 398.289 40.8712 412.352C32.8744 423.27 22.0216 437.028 19.8891 447.222C18.9561 425.785 18.9371 411.227 25.3536 399.661Z" fill="#E6E6E6"/>
<path d="M7.81767 405.53C-3.03514 393.506 -61.0691 364.905 -47.8172 383.274C-42.6193 390.477 -20.4758 408.064 -5.54842 423.537C6.04694 435.56 18.7657 445.335 23.202 456.254C20.3269 433.56 18.6895 417.554 7.83669 405.53H7.81767Z" fill="#E6E6E6"/>
<path d="M22.6879 447.794C6.82762 430.225 -108.802 407.588 -79.0809 426.967C-68.8945 433.598 -24.2076 445.012 -2.40678 467.611C14.5198 485.179 20.6126 514.276 27.1052 530.244C44.2031 502.214 38.5673 465.381 22.707 447.794H22.6879Z" fill="#E6E6E6"/>
<path d="M2.88626 595.697L4.37138 648.269C4.54274 658.234 6.84659 657.949 9.66451 657.949H47.04C49.8579 657.949 52.1808 658.253 52.3331 648.269L53.8183 595.697C53.9896 584.874 51.5715 575.765 48.5251 575.765H8.17938C5.13298 575.765 2.7149 584.893 2.88626 595.697Z" fill="#F5F5F5"/>
<path d="M0.658628 585.312H56.046C56.8647 585.312 57.5501 584.797 57.6263 584.111L58.9401 574.05C59.0353 573.25 58.3117 572.564 57.3597 572.564H-0.674166C-1.62617 572.564 -2.36873 573.269 -2.25449 574.05L-0.94074 584.111C-0.84554 584.797 -0.160096 585.312 0.639584 585.312H0.658628Z" fill="#F5F5F5"/>
<path d="M391.816 362.885H349.89V645.201H391.816V362.885Z" fill="#F0F0F0"/>
<path d="M675.76 645.22H357.944V657.949H675.76V645.22Z" fill="#F0F0F0"/>
<path d="M391.816 645.22H683.814V362.905L391.816 362.905L391.816 645.22Z" fill="#F5F5F5"/>
<path d="M387.475 351.795H344.616V362.904H387.475V351.795Z" fill="#F0F0F0"/>
<path d="M387.475 362.885L689.088 362.885V351.777L387.475 351.777V362.885Z" fill="#FAFAFA"/>
<path d="M668.525 496.193H407.105V386.418H668.525V496.193ZM409.505 493.792H666.145V388.819H409.505V493.792Z" fill="#E0E0E0"/>
<path d="M668.525 621.687H407.105V513.456H668.525V621.687ZM409.505 619.287H666.145V515.838H409.505V619.287Z" fill="#E0E0E0"/>
<path d="M588.709 408.007H486.902C484.427 408.007 482.39 405.968 482.39 403.491C482.39 401.014 484.427 398.975 486.902 398.975H588.709C591.184 398.975 593.221 401.014 593.221 403.491C593.221 405.968 591.184 408.007 588.709 408.007Z" fill="#E0E0E0"/>
<path d="M588.728 526.013H486.921C484.429 526.013 482.409 528.035 482.409 530.529C482.409 533.023 484.429 535.045 486.921 535.045H588.728C591.22 535.045 593.241 533.023 593.241 530.529C593.241 528.035 591.22 526.013 588.728 526.013Z" fill="#E0E0E0"/>
<path d="M524.221 351.681H645.315L655.14 243.622H534.045L524.221 351.681Z" fill="#E6E6E6"/>
<path d="M520.108 351.681H641.202L651.027 243.622H529.933L520.108 351.681Z" fill="#F0F0F0"/>
<path d="M630.33 339.715L637.985 255.588H540.804L533.15 339.715H630.33Z" fill="white"/>
<path d="M496.175 272.775L488.997 351.681H547.031L554.209 272.775H496.175Z" fill="#E6E6E6"/>
<path d="M493.166 272.775L485.988 351.681H544.041L551.2 272.775H493.166Z" fill="#F0F0F0"/>
<path d="M501.106 281.503L495.508 342.935H536.102L541.68 281.503H501.106Z" fill="white"/>
<path d="M314 744C517.885 744 683.167 734.343 683.167 722.43C683.167 710.517 517.885 700.86 314 700.86C110.115 700.86 -55.1665 710.517 -55.1665 722.43C-55.1665 734.343 110.115 744 314 744Z" fill="#F5F5F5"/>
<path d="M402.193 145.985C394.825 127.33 373.424 118.413 354.898 126.587C338.695 133.752 329.879 154.579 335.991 171.213C339.209 179.979 345.511 186.686 353.184 190.592C356.459 192.25 359.334 194.613 361.295 197.738L366.322 205.779C369.711 211.228 376.508 213.458 382.468 211.114L395.148 206.103C401.108 203.74 404.535 197.471 403.298 191.164L401.394 181.503C400.727 178.092 401.184 174.605 402.403 171.347C405.354 163.439 405.506 154.445 402.155 145.966L402.193 145.985Z" fill="#D9362E"/>
<path d="M384.105 227.158C383.306 227.158 382.506 226.987 381.744 226.663C380.297 226.034 379.174 224.872 378.584 223.404C377.384 220.375 378.888 216.926 381.916 215.725L398.728 209.075C400.194 208.504 401.812 208.523 403.26 209.151C404.707 209.78 405.83 210.943 406.42 212.41C406.991 213.877 406.972 215.478 406.344 216.945C405.716 218.393 404.554 219.517 403.088 220.108L386.276 226.758C385.571 227.044 384.848 227.177 384.105 227.177V227.158ZM400.899 210.581C400.404 210.581 399.908 210.676 399.432 210.866L382.62 217.517C380.564 218.336 379.536 220.68 380.354 222.738C380.754 223.728 381.516 224.51 382.487 224.948C383.477 225.386 384.562 225.405 385.552 225.005L402.365 218.355C403.355 217.955 404.135 217.193 404.573 216.221C405.011 215.23 405.03 214.144 404.63 213.153C404.231 212.162 403.469 211.381 402.498 210.943C401.984 210.714 401.432 210.6 400.899 210.6V210.581Z" fill="#263238"/>
<path d="M392.673 237.391C392.178 237.391 391.683 237.295 391.207 237.086C390.293 236.686 389.608 235.962 389.246 235.066L388.961 234.323C388.218 232.436 389.151 230.283 391.036 229.54L401.546 225.386C403.431 224.643 405.582 225.577 406.325 227.463L406.611 228.206C406.972 229.121 406.953 230.112 406.553 231.026C406.154 231.941 405.449 232.627 404.535 232.989L394.025 237.143C393.587 237.314 393.13 237.41 392.673 237.41V237.391ZM402.879 227.025C402.669 227.025 402.441 227.063 402.231 227.158L391.721 231.312C390.807 231.674 390.35 232.722 390.712 233.637L390.998 234.38C391.169 234.818 391.512 235.18 391.95 235.352C392.388 235.542 392.883 235.542 393.321 235.371L403.831 231.217C404.269 231.045 404.611 230.702 404.802 230.264C404.992 229.826 404.992 229.35 404.821 228.892L404.535 228.149C404.25 227.444 403.583 227.025 402.879 227.025Z" fill="#263238"/>
<path d="M361.429 179.769C358.573 179.769 355.888 178.054 354.784 175.253C353.337 171.595 355.145 167.422 358.801 165.973C362.476 164.525 366.627 166.335 368.074 169.994L370.701 176.644L364.056 179.274C363.199 179.617 362.305 179.769 361.448 179.769H361.429ZM361.429 167.383C360.781 167.383 360.134 167.498 359.506 167.745C356.821 168.813 355.488 171.861 356.554 174.548C357.621 177.235 360.667 178.569 363.352 177.502L368.226 175.577L366.303 170.699C365.484 168.641 363.523 167.383 361.429 167.383Z" fill="white"/>
<path d="M382.487 211.762L368.226 175.577L381.344 170.394L395.605 206.579L393.835 207.265L380.259 172.871L370.682 176.644L384.258 211.057L382.487 211.762Z" fill="white"/>
<path d="M380.259 172.871L377.632 166.221C376.185 162.563 377.993 158.39 381.649 156.941C385.305 155.493 389.475 157.303 390.922 160.962C392.369 164.62 390.56 168.793 386.904 170.242L380.259 172.871ZM384.277 158.351C383.629 158.351 382.982 158.466 382.354 158.714C379.669 159.781 378.336 162.829 379.402 165.516L381.325 170.394L386.2 168.47C388.884 167.402 390.217 164.354 389.151 161.667C388.332 159.609 386.352 158.351 384.277 158.351Z" fill="white"/>
<path d="M409.828 263.686C402.631 263.686 395.453 263.096 388.484 261.952L388.789 260.066C395.644 261.209 402.726 261.781 409.828 261.781V263.686Z" fill="#D9362E"/>
<path d="M449.222 283.408L450.231 281.35C454.401 272.852 453.963 262.867 452.23 256.465C445.014 259.075 437.341 261.019 429.42 262.219L429.135 260.333C437.284 259.094 445.148 257.074 452.516 254.33L453.468 253.987L453.773 254.959C455.677 261.152 456.457 271.175 452.878 280.131C476.278 270.813 500.706 237.734 500.706 198.328C500.706 163.325 459.942 134.857 409.847 134.857C359.753 134.857 318.988 163.325 318.988 198.328C318.988 223.767 340.637 246.67 374.128 256.693L373.576 258.522C339.247 248.252 317.065 224.624 317.065 198.328C317.065 162.277 358.687 132.951 409.828 132.951C460.97 132.951 502.591 162.277 502.591 198.328C502.591 239.753 476.011 274.376 451.374 282.703L449.203 283.427L449.222 283.408Z" fill="#D9362E"/>
<path d="M502.032 149.054L438.605 160.395C434.051 161.21 431.018 165.565 431.832 170.123L438.583 207.939C439.397 212.497 443.749 215.532 448.303 214.718L511.73 203.376C516.285 202.562 519.318 198.207 518.504 193.648L511.753 155.833C510.939 151.275 506.587 148.24 502.032 149.054Z" fill="#D9362E"/>
<path d="M486.807 179.845L464.34 171.709L468.548 195.242L486.807 179.845Z" fill="white"/>
<path d="M247.855 494.573H86.0912C82.7368 494.573 80.0175 497.294 80.0175 500.651V509.283C80.0175 512.64 82.7368 515.362 86.0912 515.362H247.855C251.209 515.362 253.929 512.64 253.929 509.283V500.651C253.929 497.294 251.209 494.573 247.855 494.573Z" fill="#D9362E"/>
<path d="M246.027 710.997H250.844L245.304 515.381H238.621L246.027 710.997Z" fill="#D9362E"/>
<path d="M246.027 710.997H250.844L245.304 515.381H238.621L246.027 710.997Z" fill="white" fill-opacity="0.2"/>
<g opacity="0.3">
<path d="M246.027 710.997H250.844L245.304 515.381H238.621L246.027 710.997Z" fill="#D9362E"/>
<path d="M246.027 710.997H250.844L245.304 515.381H238.621L246.027 710.997Z" fill="white" fill-opacity="0.2"/>
</g>
<path d="M201.607 710.997H196.79L202.349 515.381H209.013L201.607 710.997Z" fill="#D9362E"/>
<path d="M201.607 710.997H196.79L202.349 515.381H209.013L201.607 710.997Z" fill="white" fill-opacity="0.2"/>
<g opacity="0.3">
<path d="M201.607 710.997H196.79L202.349 515.381H209.013L201.607 710.997Z" fill="#D9362E"/>
<path d="M201.607 710.997H196.79L202.349 515.381H209.013L201.607 710.997Z" fill="white" fill-opacity="0.2"/>
</g>
<path d="M132.339 710.997H137.157L131.616 515.381H124.933L132.339 710.997Z" fill="#D9362E"/>
<path d="M132.339 710.997H137.157L131.616 515.381H124.933L132.339 710.997Z" fill="white" fill-opacity="0.2"/>
<g opacity="0.3">
<path d="M132.339 710.997H137.157L131.616 515.381H124.933L132.339 710.997Z" fill="#D9362E"/>
<path d="M132.339 710.997H137.157L131.616 515.381H124.933L132.339 710.997Z" fill="white" fill-opacity="0.2"/>
</g>
<path d="M87.9381 710.997H83.1019L88.6616 515.381H95.3256L87.9381 710.997Z" fill="#D9362E"/>
<path opacity="0.3" d="M87.9381 710.997H83.1019L88.6616 515.381H95.3256L87.9381 710.997Z" fill="white"/>
<path d="M297.454 661.283L314.628 655.453L300.52 615.323L283.346 621.154L297.454 661.283Z" fill="#FFC3BD"/>
<path d="M313.353 648.841L294.522 657.11C293.837 657.415 293.57 658.082 293.894 658.749L301.034 673.269C301.776 674.774 304.023 675.517 305.584 674.812C312.077 671.821 315.009 670.087 323.273 666.447C328.375 664.218 338.638 660.216 344.997 656.139C351.204 652.137 346.368 646.116 343.245 647.316C335.839 650.136 323.539 650.022 316.799 648.574C315.58 648.307 314.362 648.421 313.353 648.86V648.841Z" fill="#263238"/>
<path opacity="0.2" d="M283.346 621.173L300.52 615.342L308.574 638.284L291.114 643.296L283.346 621.173Z" fill="black"/>
<path d="M175.808 440.324C175.808 440.324 261.526 455.797 268.399 483.96C281.975 539.638 312.591 626.718 312.591 626.718L279.995 636.169C279.995 636.169 233.404 536.322 227.52 502.709C179.463 502.652 120.858 506.597 113.28 486.151C106.597 468.087 108.977 440.324 108.977 440.324H175.808Z" fill="#263238"/>
<path d="M278.205 641.943L316.285 629.367L313.029 612.16L271.503 626.794L278.205 641.943Z" fill="#D9362E"/>
<path d="M222.817 667.381L241.781 668.829L230.643 621.992L212.955 625.994L222.817 667.381Z" fill="#FFC3BD"/>
<path d="M241.305 664.256L220.875 661.988C220.133 661.912 219.562 662.369 219.524 663.093L218.457 679.252C218.343 680.929 219.904 682.701 221.618 682.853C228.739 683.52 232.128 683.463 241.115 684.473C246.637 685.083 257.527 686.76 265.086 686.397C272.474 686.035 271.274 678.414 267.98 677.88C260.155 676.622 249.569 670.353 244.447 665.742C243.533 664.904 242.41 664.389 241.324 664.275L241.305 664.256Z" fill="#263238"/>
<path opacity="0.2" d="M212.955 626.013L230.643 622.011L236.26 645.677L218.381 648.821L212.955 626.013Z" fill="black"/>
<path d="M131.292 440.324C131.292 440.324 235.46 455.93 230.681 495.392C223.808 552.29 241.458 634.588 241.458 634.588L208.042 640.571C208.042 640.571 183.462 538.285 183.252 504.158C149.361 504.158 90.1277 506.578 82.5689 486.151C75.8858 468.087 78.2658 440.324 78.2658 440.324H131.292Z" fill="#263238"/>
<path d="M205.662 646.135L244.866 637.598L243.419 620.144L200.579 630.357L205.662 646.135Z" fill="#D9362E"/>
<path d="M186.165 330.664C188.945 341.563 191.668 352.558 194.334 363.514C196.999 374.471 199.608 385.446 202.368 396.269L204.444 404.349L205.51 408.312L206.062 410.275L206.138 410.522L206.176 410.637C206.176 410.637 206.119 410.465 206.081 410.389C205.91 409.951 205.681 409.513 205.529 409.265C205.453 409.112 205.339 408.96 205.244 408.846C205.167 408.75 205.11 408.655 205.034 408.56C204.844 408.35 204.768 408.255 204.653 408.141C204.234 407.759 204.196 407.817 204.292 407.912C204.368 408.026 204.672 408.236 204.977 408.465C205.643 408.922 206.576 409.455 207.604 409.951C209.661 410.961 212.06 411.894 214.516 412.847C224.436 416.525 235.365 419.65 245.989 423.022L244.314 435.179C238.392 435.256 232.623 434.989 226.778 434.493C220.932 433.979 215.106 433.236 209.128 432.016C206.119 431.426 203.111 430.663 199.874 429.615C198.256 429.082 196.599 428.453 194.752 427.595C193.82 427.138 192.887 426.662 191.801 425.957C190.735 425.252 189.574 424.413 188.203 422.984C187.86 422.603 187.536 422.26 187.156 421.746L186.622 421.022C186.432 420.755 186.242 420.431 186.07 420.126C185.728 419.554 185.366 418.811 185.08 418.03L184.756 417.134L184.033 415.038L182.605 410.884C181.672 408.121 180.758 405.378 179.92 402.615C176.474 391.62 173.332 380.645 170.362 369.612C167.411 358.579 164.65 347.565 162.099 336.399L186.165 330.626V330.664Z" fill="#FFC3BD"/>
<path d="M159.395 317.478C169.848 305.816 186.432 313.972 193.401 340.058C196.79 352.748 195.724 359.398 195.724 359.398L159.662 370.507C151.913 353.358 145.172 333.351 159.395 317.478Z" fill="#D9362E"/>
<g opacity="0.2">
<path d="M159.395 317.478C169.848 305.816 186.432 313.972 193.401 340.058C196.79 352.748 195.724 359.398 195.724 359.398L159.662 370.507C151.913 353.358 145.172 333.351 159.395 317.478Z" fill="#D9362E"/>
</g>
<path d="M264.782 418.049L261.545 417.058C259.584 416.448 257.527 416.277 255.49 416.506L248.54 417.325C243.876 418.506 239.953 421.517 237.935 425.461L235.574 430.054C236.755 438.571 253.967 435.827 253.967 435.827H270.151L269.618 424.28C269.484 421.384 267.542 418.887 264.782 418.03V418.049Z" fill="#FFC3BD"/>
<path d="M275.958 399.452C275.634 402.939 273.788 405.416 272.017 407.931C270.284 410.465 268.494 412.98 266.686 415.477C263.049 420.431 259.336 425.347 255.243 430.015C254.843 430.473 254.138 430.53 253.681 430.111C253.301 429.768 253.205 429.215 253.434 428.777C256.252 423.251 259.431 417.973 262.687 412.752C264.325 410.141 266 407.569 267.714 405.016C269.389 402.443 271.008 399.814 274.13 398.213C274.74 397.889 275.501 398.137 275.825 398.766C275.939 398.994 275.977 399.223 275.958 399.452Z" fill="#263238"/>
<path d="M161.813 306.178L141.498 300.386L115.356 299.147C107.207 298.766 99.8382 303.892 97.2868 311.647C92.2983 326.853 87.7287 348.861 84.3777 367.859C80.6268 389.162 78.6847 411.227 78.2659 440.343H175.808C177.788 386.113 184.166 359.646 187.955 340.458C190.259 328.739 184.357 316.944 173.58 311.819L161.813 306.198V306.178Z" fill="#D9362E"/>
<path d="M134.567 309.989C137.042 316.354 146.639 329.94 157.777 335.256C163.965 330.778 165.279 321.022 166.231 316.43L134.567 309.97V309.989Z" fill="white"/>
<path d="M166.212 316.449C166.745 313.838 166.783 311.171 165.374 308.941C163.793 306.464 164.193 303.625 165.774 300.71C166.802 298.804 169.639 294.746 170.438 294.364L157.663 279.406L147.248 267.345C146.353 278.644 145.477 292.631 136.585 301.415C133.444 304.521 132.796 305.454 134.567 310.008C137.042 316.373 145.896 325.252 157.034 330.569C163.222 326.091 165.279 321.041 166.212 316.468V316.449Z" fill="#FFC3BD"/>
<path opacity="0.2" d="M166.516 291.792L159.319 280.073C159.167 280.359 158.995 280.702 158.824 281.045C158.253 282.303 157.701 283.865 157.282 285.542C155.949 290.744 160.366 298.175 165.222 301.739C165.412 301.396 165.583 301.072 165.793 300.729C166.707 299.014 169.277 295.298 170.153 294.574C170.248 294.479 170.343 294.422 170.438 294.364L166.516 291.811V291.792Z" fill="black"/>
<path d="M191.725 263.782C193.401 274.586 208.842 246.785 200.217 240.668C189.669 233.199 188.545 243.202 191.725 263.782Z" fill="#263238"/>
<path d="M147.724 249.681C146.734 267.23 145.23 277.425 153.283 287.562C165.393 302.806 188.641 297.775 195.057 280.969C200.826 265.839 201.474 239.696 184.623 230.436C168.02 221.308 148.733 232.132 147.743 249.662L147.724 249.681Z" fill="#FFC3BD"/>
<path d="M182.281 239.144C182.281 239.144 193.496 250.157 201.493 245.603C209.47 241.049 211.127 229.254 201.493 218.927C196.866 213.953 189.859 209.094 176.112 209.475C177.121 210.79 179.996 211.857 179.996 211.857C179.996 211.857 162.575 208.942 150.408 213.953C150.408 213.953 151.989 216.392 154.292 217.498C142.469 216.602 130.988 221.232 139.137 232.417C128.417 233.446 126.018 247.185 131.73 256.236C137.442 265.287 138.451 272.07 146.086 276.186C146.162 263.858 148.923 260.961 148.923 260.961C154.426 258.637 160.766 246.88 159.509 240.954C171.048 245.603 183.595 247.166 182.3 239.163L182.281 239.144Z" fill="#263238"/>
<path d="M141.726 231.941C138.375 229.178 135.481 226.663 133.368 221.347C131.997 227.482 138.356 234.475 138.356 234.475L141.745 231.941H141.726Z" fill="#263238"/>
<path d="M138.965 259.266C139.061 263.572 141.003 267.535 143.402 270.07C147.038 273.881 151.989 270.641 152.846 265.744C153.626 261.343 151.76 254.597 147.21 252.615C142.735 250.653 138.832 254.33 138.946 259.266H138.965Z" fill="#FFC3BD"/>
<path d="M176.436 258.732C176.151 260.18 176.665 261.533 177.598 261.743C178.531 261.971 179.521 260.981 179.825 259.532C180.111 258.084 179.597 256.731 178.664 256.522C177.731 256.312 176.741 257.284 176.436 258.732Z" fill="#263238"/>
<path d="M192.62 262.581C192.334 264.029 192.849 265.382 193.782 265.592C194.714 265.82 195.705 264.83 196.009 263.381C196.295 261.933 195.781 260.58 194.848 260.371C193.915 260.161 192.925 261.133 192.62 262.581Z" fill="#263238"/>
<path d="M187.232 262.486C187.232 262.486 188.05 270.317 190.126 274.605C187.46 275.938 184.109 273.919 184.109 273.919L187.232 262.486Z" fill="#ED847E"/>
<path d="M181.12 282.017C175.465 280.778 173.066 276.548 172.952 276.358C172.838 276.148 172.914 275.881 173.123 275.767C173.333 275.653 173.599 275.729 173.713 275.939C173.732 275.996 176.455 280.797 182.891 281.426C183.138 281.445 183.31 281.655 183.271 281.903C183.252 282.131 183.043 282.322 182.795 282.284C182.205 282.227 181.634 282.131 181.101 282.017H181.12Z" fill="#263238"/>
<path d="M174.304 252.901C174.17 252.844 174.056 252.768 173.961 252.654C173.656 252.292 173.713 251.739 174.075 251.434C177.712 248.423 181.539 249.681 181.691 249.738C182.129 249.833 182.396 250.386 182.224 250.824C182.072 251.282 181.577 251.51 181.139 251.358C180.987 251.301 178.035 250.405 175.179 252.768C174.932 252.978 174.589 253.016 174.304 252.901Z" fill="#263238"/>
<path d="M194.619 253.244C194.581 253.111 194.581 252.958 194.619 252.806C194.753 252.349 195.229 252.082 195.685 252.215C200.236 253.492 201.378 257.341 201.417 257.513C201.588 257.932 201.283 258.446 200.826 258.58C200.369 258.713 199.893 258.446 199.76 257.989C199.703 257.836 198.789 254.902 195.209 253.892C194.905 253.797 194.676 253.549 194.6 253.263L194.619 253.244Z" fill="#263238"/>
<path d="M119.43 325.386C115.756 335.828 112.119 346.727 108.844 357.379C107.188 362.733 105.703 368.087 104.332 373.366C103.018 378.644 101.894 383.922 101.304 388.743C101.247 389.333 101.152 389.943 101.114 390.496L101.057 391.334C101.038 391.601 101.019 392.001 101 391.868C100.943 391.83 100.847 391.963 100.962 392.363C101.133 393.144 101.933 394.726 103.265 396.288C105.931 399.49 109.986 402.843 114.309 405.854C123.01 411.971 133.101 417.42 142.964 422.508L139.042 434.131C132.987 432.836 127.351 431.197 121.601 429.215C115.889 427.233 110.253 424.928 104.636 422.108C99.0575 419.173 93.4598 415.972 88.0524 410.846C85.3868 408.236 82.626 405.149 80.5887 400.557C79.5796 398.289 78.8561 395.545 78.6847 392.63C78.6276 391.772 78.6467 391.468 78.6276 391.01V389.676C78.6086 388.781 78.6657 387.962 78.6847 387.104C78.9513 380.378 79.9414 374.261 81.0838 368.221C82.2262 362.199 83.6542 356.369 85.1774 350.576C88.2999 338.991 91.9175 327.882 96.2396 316.62L119.392 325.367L119.43 325.386Z" fill="#FFC3BD"/>
<path d="M114.118 299.128C132.739 298.957 136.262 313.457 126.132 336.437C120.839 348.461 111.967 359.932 111.967 359.932L81.179 343.564C85.3106 325.214 92.8124 299.319 114.118 299.128Z" fill="#D9362E"/>
<path d="M165.488 420.66L158.672 416.925C157.567 416.315 156.273 416.086 155.016 416.258L146.829 417.382C141.326 417.954 137.328 422.165 134.32 425.823L130.816 430.092C130.645 438.704 152.389 436.685 152.389 436.685L171.409 436.437L170.819 428.929C170.534 425.442 168.534 422.336 165.469 420.66H165.488Z" fill="#FFC3BD"/>
<path d="M571.687 432.13H56.2936V456.273H571.687V432.13Z" fill="#D9362E"/>
<path opacity="0.3" d="M223.465 432.13H56.2936V456.273H223.465V432.13Z" fill="white"/>
<path d="M70.0975 456.254H62.215V722.411H70.0975V456.254Z" fill="#D9362E"/>
<path opacity="0.7" d="M70.0975 456.254H62.215V722.411H70.0975V456.254Z" fill="white"/>
<path d="M217.562 456.254H209.68V722.411H217.562V456.254Z" fill="#D9362E"/>
<path opacity="0.7" d="M217.562 456.254H209.68V722.411H217.562V456.254Z" fill="white"/>
<path d="M418.32 456.254H410.438V722.411H418.32V456.254Z" fill="#D9362E"/>
<path opacity="0.7" d="M418.32 456.254H410.438V722.411H418.32V456.254Z" fill="white"/>
<path d="M565.785 456.254H557.902V722.411H565.785V456.254Z" fill="#D9362E"/>
<path opacity="0.7" d="M565.785 456.254H557.902V722.411H565.785V456.254Z" fill="white"/>
<path d="M515.729 325.424H374.833C370.054 325.424 365.522 329.33 364.723 334.113L350.024 423.461C349.243 428.243 352.499 432.15 357.278 432.15H498.174C502.953 432.15 507.484 428.243 508.284 423.461L522.983 334.113C523.764 329.33 520.508 325.424 515.729 325.424Z" fill="#263238"/>
<path d="M426.355 426.3H293.703C292.831 426.3 292.123 427.008 292.123 427.881V430.549C292.123 431.422 292.831 432.131 293.703 432.131H426.355C427.228 432.131 427.935 431.422 427.935 430.549V427.881C427.935 427.008 427.228 426.3 426.355 426.3Z" fill="#263238"/>
<path opacity="0.2" d="M515.729 325.424H378.012C373.233 325.424 368.702 329.33 367.902 334.113L353.203 423.461C352.423 428.243 355.679 432.15 360.458 432.15H498.174C502.953 432.15 507.485 428.243 508.284 423.461L522.983 334.113C523.764 329.33 520.508 325.424 515.729 325.424Z" fill="white"/>
<path d="M151.132 426.3C151.132 426.3 196.504 433.064 218.4 424.128C228.644 429.063 265.143 431.502 277.824 426.3C273.902 430.854 264.686 432.131 264.686 432.131H168.972C159.776 432.131 152.731 428.11 151.132 426.3Z" fill="#D9362E"/>
<path opacity="0.7" d="M151.132 426.3C151.132 426.3 196.504 433.064 218.4 424.128C228.644 429.063 265.143 431.502 277.824 426.3C273.902 430.854 264.686 432.131 264.686 432.131H168.972C159.776 432.131 152.731 428.11 151.132 426.3Z" fill="#D9362E"/>
</g>
<defs>
<filter id="filter0_d_178_4" x="0" y="0" width="608" height="739" filterUnits="userSpaceOnUse" color-interpolation-filters="sRGB">
<feFlood flood-opacity="0" result="BackgroundImageFix"/>
<feColorMatrix in="SourceAlpha" type="matrix" values="0 0 0 0 0 0 0 0 0 0 0 0 0 0 0 0 0 0 127 0" result="hardAlpha"/>
<feOffset dy="4"/>
<feGaussianBlur stdDeviation="2"/>
<feComposite in2="hardAlpha" operator="out"/>
<feColorMatrix type="matrix" values="0 0 0 0 0 0 0 0 0 0 0 0 0 0 0 0 0 0 0.25 0"/>
<feBlend mode="normal" in2="BackgroundImageFix" result="effect1_dropShadow_178_4"/>
<feBlend mode="normal" in="SourceGraphic" in2="effect1_dropShadow_178_4" result="shape"/>
</filter>
<clipPath id="clip0_178_4">
<rect width="600" height="698" fill="white" transform="translate(4 34)"/>
</clipPath>
</defs>
</svg>
